[
  {
    "uuid": "Q8lttc1iQ9WvsLGf8o9udw==",
    "id": 993623315,
    "host_id": "tautd0PaTp6vL-V-f0ojNw",
    "topic": "Meet Makosi Webinar",
    "type": 5,
    "start_time": "2019-12-19T17:00:00Z",
    "duration": 60,
    "timezone": "America/New_York",
    "created_at": "2019-11-08T20:34:22Z",
    "join_url": "https://zoom.us/j/993623315"
  },
  {
    "uuid": "pNHXbH3RQKmSBhnrYfUg9Q==",
    "id": 177561926,
    "host_id": "tautd0PaTp6vL-V-f0ojNw",
    "topic": "Meet Makosi Webinar",
    "type": 5,
    "start_time": "2019-12-23T21:30:00Z",
    "duration": 60,
    "timezone": "America/New_York",
    "created_at": "2019-11-08T20:35:13Z",
    "join_url": "https://zoom.us/j/177561926"
  },
  {
    "uuid": "OF6r+CjiSzKsmY6AYx4QQQ==",
    "id": 485318083,
    "host_id": "tautd0PaTp6vL-V-f0ojNw",
    "topic": "Meet Makosi Webinar",
    "type": 5,
    "start_time": "2019-12-24T18:00:00Z",
    "duration": 60,
    "timezone": "America/New_York",
    "created_at": "2019-11-08T20:39:19Z",
    "join_url": "https://zoom.us/j/485318083"
  },
  {
    "uuid": "e7YvX8XyRvKkfPW2k6xFGA==",
    "id": 250230496,
    "host_id": "tautd0PaTp6vL-V-f0ojNw",
    "topic": "Meet Makosi Webinar",
    "type": 5,
    "start_time": "2020-01-02T18:00:00Z",
    "duration": 60,
    "timezone": "America/New_York",
    "created_at": "2019-12-03T18:02:51Z",
    "join_url": "https://zoom.us/j/250230496"
  },
  {
    "uuid": "hJ/VLYYmT+eKoQqzFfDQaA==",
    "id": 454184465,
    "host_id": "tautd0PaTp6vL-V-f0ojNw",
    "topic": "Meet Makosi Webinar",
    "type": 5,
    "start_time": "2020-01-06T21:30:00Z",
    "duration": 60,
    "timezone": "America/New_York",
    "created_at": "2019-12-03T18:04:57Z",
    "join_url": "https://zoom.us/j/454184465"
  },
  {
    "uuid": "dg+I3Uu7RUyhyyUvmcLTig==",
    "id": 863393392,
    "host_id": "tautd0PaTp6vL-V-f0ojNw",
    "topic": "Meet Makosi Webinar",
    "type": 5,
    "start_time": "2020-01-07T18:00:00Z",
    "duration": 60,
    "timezone": "America/New_York",
    "created_at": "2019-12-03T18:09:55Z",
    "join_url": "https://zoom.us/j/863393392"
  },
  {
    "uuid": "fbUbICaCRS6pt3tn0/7Mfg==",
    "id": 651138044,
    "host_id": "tautd0PaTp6vL-V-f0ojNw",
    "topic": "Meet Makosi Webinar",
    "type": 5,
    "start_time": "2020-01-08T21:30:00Z",
    "duration": 60,
    "timezone": "America/New_York",
    "created_at": "2019-12-03T18:11:12Z",
    "join_url": "https://zoom.us/j/651138044"
  },
  {
    "uuid": "ykq3lNvrRhORQfAc99HLYw==",
    "id": 471653298,
    "host_id": "tautd0PaTp6vL-V-f0ojNw",
    "topic": "Meet Makosi Webinar",
    "type": 5,
    "start_time": "2020-01-09T18:00:00Z",
    "duration": 60,
    "timezone": "America/New_York",
    "created_at": "2019-12-03T18:10:46Z",
    "join_url": "https://zoom.us/j/471653298"
  },
  {
    "uuid": "7X2ZMosbQi2OXYoc+jQAMw==",
    "id": 233910051,
    "host_id": "tautd0PaTp6vL-V-f0ojNw",
    "topic": "Meet Makosi Webinar",
    "type": 5,
    "start_time": "2020-01-13T21:30:00Z",
    "duration": 60,
    "timezone": "America/New_York",
    "created_at": "2019-12-03T20:11:07Z",
    "join_url": "https://zoom.us/j/233910051"
  },
  {
    "uuid": "5V0CjrXrROqewFyKCdPRmw==",
    "id": 948118176,
    "host_id": "tautd0PaTp6vL-V-f0ojNw",
    "topic": "Meet Makosi Webinar",
    "type": 5,
    "start_time": "2020-01-14T18:00:00Z",
    "duration": 60,
    "timezone": "America/New_York",
    "created_at": "2019-12-03T20:12:38Z",
    "join_url": "https://zoom.us/j/948118176"
  },
  {
    "uuid": "a/OVwgChRVKyhfX0Ori9+A==",
    "id": 338551109,
    "host_id": "tautd0PaTp6vL-V-f0ojNw",
    "topic": "Meet Makosi Webinar",
    "type": 5,
    "start_time": "2020-01-15T21:30:00Z",
    "duration": 60,
    "timezone": "America/New_York",
    "created_at": "2019-12-03T20:13:12Z",
    "join_url": "https://zoom.us/j/338551109"
  },
  {
    "uuid": "F7MeGUbqQa+SE/sH6Hyovw==",
    "id": 894746461,
    "host_id": "tautd0PaTp6vL-V-f0ojNw",
    "topic": "Meet Makosi Webinar",
    "type": 5,
    "start_time": "2020-01-16T18:00:00Z",
    "duration": 60,
    "timezone": "America/New_York",
    "created_at": "2019-12-03T20:13:45Z",
    "join_url": "https://zoom.us/j/894746461"
  }
]
