<svg version="1.1" xmlns="http://www.w3.org/2000/svg" xmlns:xlink="http://www.w3.org/1999/xlink" x="0px" y="0px"
	 viewBox="0 0 983.1 421.5" style="enable-background:new 0 0 983.1 421.5;" xml:space="preserve">
<style type="text/css">
	.st0{fill:#FFFFFF;}
	.st1{opacity:0.4;fill:url(#SVGID_1_);}
	.st2{opacity:0.4;fill:url(#SVGID_2_);}
</style>
<g id="Guides">
</g>
<g id="BG">
</g>
<g id="ARtwork">
	<g>
		<path class="st0" d="M214.8,240.4c0-7.5,1.3-14.5,3.9-21.1c2.6-6.6,6.3-12.3,11.1-17.2c4.8-4.9,10.5-8.8,17.3-11.6
			c6.7-2.8,14.2-4.3,22.4-4.3c3.8,0,7.5,0.4,11,1.1c3.5,0.8,6.7,1.8,9.8,3.1c3,1.3,5.8,2.8,8.4,4.6c2.5,1.8,4.8,3.6,6.8,5.5
			l1.4-11.2h20.6v102.1h-20.6l-1.4-11.2c-2.1,2-4.4,3.8-6.9,5.6c-2.6,1.7-5.4,3.2-8.4,4.5c-3,1.3-6.2,2.3-9.7,3.1
			c-3.5,0.8-7.1,1.1-11,1.1c-8.1,0-15.6-1.4-22.3-4.2c-6.7-2.8-12.4-6.7-17.2-11.6c-4.8-4.9-8.5-10.6-11.1-17.2
			C216.2,254.9,214.8,247.9,214.8,240.4z M238.9,240.3c0,4.9,0.9,9.4,2.6,13.5c1.7,4.1,4.1,7.6,7,10.6c3,2.9,6.4,5.2,10.4,6.8
			c4,1.6,8.2,2.4,12.8,2.4c4.5,0,8.7-0.8,12.7-2.4c4-1.6,7.4-3.9,10.4-6.8c2.9-2.9,5.3-6.4,7-10.5c1.7-4.1,2.6-8.6,2.6-13.5
			c0-4.8-0.9-9.3-2.6-13.3c-1.7-4.1-4.1-7.6-7-10.5c-3-2.9-6.4-5.2-10.4-6.8c-4-1.7-8.2-2.5-12.8-2.5c-4.6,0-8.8,0.8-12.8,2.4
			c-4,1.6-7.4,3.9-10.4,6.8c-2.9,2.9-5.3,6.4-6.9,10.5C239.8,231,238.9,235.5,238.9,240.3z"/>
		<path class="st0" d="M344.8,151.6h24.1V240l42.1-50.7h28.3l-35.8,42.8l39,59.2h-28.9L386,248l-17.2,19.7v23.6h-24.1V151.6z"/>
		<path class="st0" d="M659.9,189.3h24.3v102.1h-24.3V189.3z"/>
		<path class="st0" d="M189.9,200.9c-4.4-4.6-9.6-8.2-15.4-10.7c-6-2.6-12.4-4-19-4c-6.6,0-12.9,1.3-18.9,4
			c-5.8,2.5-10.9,6.1-15.4,10.7c-0.6,0.7-1.2,1.3-1.8,2c-0.6-0.7-1.2-1.4-1.8-2c-4.4-4.6-9.6-8.2-15.4-10.7c-6-2.6-12.4-4-18.9-4
			c-6.6,0-12.9,1.3-19,4c-5.8,2.5-10.9,6.1-15.4,10.7c-9,9.3-14,21.7-14,34.9v55.6h24.4v-55.6c0-13.9,10.8-25.1,24-25.1
			c13.2,0,24,11.3,24,25.1v55.6h0h24.4h0v-55.6c0-13.9,10.7-25.1,24-25.1c13.2,0,24,11.3,24,25.1v55.6h24.4v-55.6
			C203.9,222.6,198.9,210.2,189.9,200.9z"/>
		<g>
			<path class="st0" d="M482.4,187c3.2-0.5,6.5-0.8,9.9-0.8c8.2,0,15.8,1.4,22.7,4.3c6.9,2.8,12.9,6.7,17.9,11.6
				c5,4.9,8.9,10.6,11.7,17.2c2.8,6.6,4.2,13.6,4.2,21.1c0,7.5-1.4,14.6-4.2,21.1c-2.8,6.5-6.7,12.3-11.7,17.2
				c-5,4.9-11,8.7-17.9,11.6c-6.9,2.8-14.5,4.2-22.8,4.2c-8.1,0-15.6-1.4-22.5-4.2c-6.8-2.8-12.7-6.7-17.7-11.6
				c-5-4.9-8.8-10.6-11.7-17.2c-2.8-6.6-4.2-13.6-4.2-21.1c0-7.5,1.4-14.5,4.2-21.1c2.8-6.6,6.7-12.3,11.7-17.2
				c5-4.9,10.9-8.8,17.8-11.6C473.8,188.9,478,187.7,482.4,187 M460.3,240.3c0,4.9,0.8,9.4,2.5,13.4c1.7,4.1,4,7.6,6.9,10.5
				c2.9,2.9,6.3,5.2,10.2,6.9c3.9,1.7,8.1,2.5,12.6,2.5c4.5,0,8.7-0.8,12.6-2.4c3.9-1.6,7.3-3.9,10.2-6.8c2.9-2.9,5.2-6.5,6.9-10.6
				c1.7-4.1,2.5-8.6,2.5-13.5c0-4.8-0.8-9.3-2.5-13.3c-1.7-4.1-4-7.6-6.9-10.5c-2.9-2.9-6.3-5.2-10.3-6.8c-3.9-1.7-8.1-2.5-12.5-2.5
				c-4.5,0-8.7,0.8-12.6,2.4c-3.9,1.6-7.3,3.9-10.2,6.8c-2.9,2.9-5.2,6.4-6.9,10.5C461.2,231,460.3,235.5,460.3,240.3z"/>
		</g>
		<path class="st0" d="M686.3,163c0,7.9-6.4,14.3-14.3,14.3c-7.9,0-14.3-6.4-14.3-14.3c0-7.9,6.4-14.3,14.3-14.3
			C679.9,148.8,686.3,155.2,686.3,163z"/>
		<path class="st0" d="M644.2,247.6c-2.2-3.6-5.2-6.6-8.9-8.8c-3.7-2.3-8-4-12.8-5.3c-4.8-1.3-9.7-2.4-14.6-3.3
			c-4.1-0.6-7.6-1.2-10.7-1.8c-3-0.7-5.5-1.5-7.5-2.4c-2-0.9-3.4-2-4.4-3.3c-1-1.3-1.4-2.8-1.4-4.7c0-1.6,0.4-3.1,1.2-4.6
			c0.8-1.5,1.9-2.7,3.5-3.8c1.5-1.1,3.5-1.9,5.9-2.6c2.4-0.6,4.7-0.9,8.1-0.8c5.2,0.1,9.3,1.4,12.3,3.8c3,2.4,4.7,5.4,4.8,8.9h24.1
			c0-4.4-0.8-8.6-2.5-12.4c-1.8-4-4.3-7.5-7.7-10.4c-3.4-2.9-7.5-5.2-12.4-6.9c-4.9-1.7-10.4-2.6-16.5-2.8c-7.8-0.2-14,0.4-19.6,1.9
			c-5.7,1.4-10.3,3.6-14,6.4c-3.7,2.8-6.5,6.1-8.3,10c-1.8,3.9-2.8,8.2-2.9,13c-0.1,3.8,0.4,7.2,1.3,10c1,2.8,2.3,5.3,4,7.3
			c1.7,2.1,3.7,3.8,5.9,5.3c2.2,1.4,4.6,2.6,7.1,3.6c2.5,1,5,1.7,7.5,2.3c2.5,0.6,5,1.1,7.3,1.5c4.6,1,8.7,1.9,12.3,2.7
			c3.6,0.8,6.7,1.8,9.2,2.9c2.5,1.1,4.4,2.3,5.7,3.8c1.3,1.5,1.9,3.3,1.8,5.5c-0.1,3.9-2,7.2-5.7,9.4c-3.7,2.2-9,2.8-16.7,2.6
			c-2.8-0.1-5.5-0.5-7.9-1.3c-2.4-0.8-4.6-1.8-6.4-3.1c-1.8-1.3-3.3-2.8-4.3-4.6c-1-1.7-1.6-3.6-1.6-5.5H556c0,3.9,0.8,7.7,2.4,11.6
			c1.7,4.1,4.3,7.8,7.8,11.1c3.5,3.3,8,6.1,13.3,8.2c5.4,2.1,11.7,3.3,19,3.5c7.3,0.2,13.5,0,19.5-1.3c6-1.3,11.1-3.3,15.4-6
			c4.3-2.7,7.7-6.2,10.1-10.4c2.4-4.2,3.7-9.5,3.8-15.2C647.5,255.8,646.4,251.2,644.2,247.6z"/>
		<g>
			<path class="st0" d="M904.5,361.3H770.9c-11.6,0-22-6.4-27.2-16.8c-5.2-10.4-4.1-22.6,2.9-31.8l68.3-91.1l-68.3-91.1
				c-6.9-9.3-8-21.5-2.9-31.8c5.2-10.4,15.6-16.8,27.2-16.8h133.5c11.6,0,22,6.4,27.2,16.8c5.2,10.4,4.1,22.6-2.9,31.8l-68.3,91.1
				l68.3,91.1c6.9,9.3,8,21.5,2.9,31.8C926.5,354.8,916,361.3,904.5,361.3z M783.1,324.8h109.2l-54.6-72.9L783.1,324.8z
				 M783.1,118.2l54.6,72.9l54.6-72.9H783.1z"/>
		</g>
		<linearGradient id="SVGID_1_" gradientUnits="userSpaceOnUse" x1="785.2253" y1="290.4767" x2="850.7198" y2="208.1124">
			<stop  offset="0" style="stop-color:#FFFFFF"/>
			<stop  offset="1" style="stop-color:#FFFFFF"/>
		</linearGradient>
		<polygon class="st1" points="814.9,221.5 837.7,251.9 783.1,324.8 746.6,312.7 		"/>
		<linearGradient id="SVGID_2_" gradientUnits="userSpaceOnUse" x1="825.9193" y1="235.3982" x2="882.4828" y2="161.9649">
			<stop  offset="0" style="stop-color:#FFFFFF"/>
			<stop  offset="1" style="stop-color:#FFFFFF"/>
		</linearGradient>
		<polygon class="st2" points="837.7,191.1 860.5,221.5 928.8,130.4 892.3,118.2 		"/>
	</g>
</g>
</svg>
